%YAML 1.1
%TAG !u! tag:unity3d.com,2011:
--- !u!1045 &1
EditorBuildSettings:
  m_ObjectHideFlags: 0
  serializedVersion: 2
  m_Scenes:
  - enabled: 1
    path: Assets/_EndlessRunner/Scenes/Menu.unity
    guid: 5c5d81062925ff0468682bd636978f8a
  - enabled: 1
    path: Assets/_EndlessRunner/Scenes/EndlessMap.unity
    guid: 76ee83b16777a3d4aa9463df880dfa50
